{
	"ext": "js json",
	"env": {
        "NODE_ENV": "development"
    },
	"ignore": [
		".git",
		"client/*.*",
		"node_modules/**/node_modules",
		"nodemon.json",
		"gulpfile.js"
	],
	"restartable": "rs",
	"watch": [
    	"server/"
    ]
}